<?xml version="1.0" encoding="UTF-8"?>
<svg width="55px" height="44px" viewBox="0 0 45 44" version="1.1" xmlns="http://www.w3.org/2000/svg" xmlns:xlink="http://www.w3.org/1999/xlink">
    <!-- Generator: Sketch 54.1 (76490) - https://sketchapp.com -->
    <title>Group</title>
    <desc>Created with Sketch.</desc>
    <g id="Desktop" stroke="none" stroke-width="1" fill="none" fill-rule="evenodd" stroke-linecap="round" stroke-linejoin="round">
        <g id="HOME-3" transform="translate(-617.000000, -433.000000)" stroke-width="2">
            <g id="Group-2" transform="translate(471.000000, 362.000000)">
                <g id="Group" transform="translate(147.000000, 72.000000)">
                    <polyline id="Path-7-Copy" stroke="#EE5366" transform="translate(21.500000, 32.000000) scale(-1, 1) translate(-21.500000, -32.000000) " points="0 32.1449275 43 32.1449275 32.5571429 22 43 32.1449275 32.5571429 42"></polyline>
                    <polyline id="Path-7-Copy" stroke="#50E3C2" points="0 10.1449275 43 10.1449275 32.5571429 0 43 10.1449275 32.5571429 20"></polyline>
                </g>
            </g>
        </g>
    </g>
</svg>
